[gd_scene load_steps=4 format=2]

[ext_resource path="res://icon.png" type="Texture" id=1]
[ext_resource path="res://cargo/Cargo.cs" type="Script" id=2]
[ext_resource path="res://sounds/CollisionSound.tscn" type="PackedScene" id=3]

[node name="Cargo" type="RigidBody2D"]
collision_layer = 3
mode = 2
gravity_scale = 0.0
contacts_reported = 1
contact_monitor = true
linear_damp = 0.0
script = ExtResource( 2 )

[node name="Sprite" type="Sprite" parent="."]
texture = ExtResource( 1 )

[node name="CollisionPolygon2D" type="CollisionPolygon2D" parent="."]
position = Vector2( -0.100003, 1.1 )
scale = Vector2( 0.998047, 0.978516 )
polygon = PoolVector2Array( 32, -32, 32, 32, -32, 32, -32, -32, 31, -32 )

[node name="CollisionSound" parent="." instance=ExtResource( 3 )]

[connection signal="body_entered" from="." to="." method="PlayCollisionSound"]
