[gd_scene load_steps=2 format=2]

[ext_resource path="res://sounds/alarm.wav" type="AudioStream" id=1]

[node name="AlarmSound" type="AudioStreamPlayer2D"]
stream = ExtResource( 1 )
volume_db = -8.0
bus = "SFX"
