[gd_scene load_steps=2 format=2]

[ext_resource path="res://sounds/moving-hook.wav" type="AudioStream" id=1]

[node name="MovingHookSound" type="AudioStreamPlayer2D"]
stream = ExtResource( 1 )
bus = "SFX"
