[gd_scene load_steps=2 format=2]

[ext_resource path="res://sounds/open-hook.wav" type="AudioStream" id=1]

[node name="OpenHookSound" type="AudioStreamPlayer2D"]
stream = ExtResource( 1 )
bus = "SFX"
