[gd_scene load_steps=7 format=2]

[ext_resource path="res://fonts/BeatifulButtonFont.tres" type="DynamicFont" id=1]
[ext_resource path="res://graphics/ok.png" type="Texture" id=2]
[ext_resource path="res://sounds/ButtonSound.tscn" type="PackedScene" id=7]

[sub_resource type="StyleBoxEmpty" id=1]

[sub_resource type="StyleBoxEmpty" id=2]

[sub_resource type="StyleBoxEmpty" id=3]

[node name="OkButton" type="Button"]
margin_left = 3.0
margin_top = 10.0
margin_right = 205.0
margin_bottom = 77.0
mouse_default_cursor_shape = 2
custom_colors/font_color_disabled = Color( 0.501961, 0.501961, 0.501961, 1 )
custom_colors/font_color_focus = Color( 0, 0, 0, 1 )
custom_colors/font_color = Color( 0, 0, 0, 1 )
custom_colors/font_color_hover = Color( 1, 1, 1, 1 )
custom_colors/font_color_pressed = Color( 0, 0, 0, 1 )
custom_fonts/font = ExtResource( 1 )
custom_styles/hover = SubResource( 1 )
custom_styles/pressed = SubResource( 2 )
custom_styles/normal = SubResource( 3 )
text = "Ok"

[node name="ButtonSound" parent="." instance=ExtResource( 7 )]
position = Vector2( 184, 35 )

[node name="Ok" type="Sprite" parent="."]
show_behind_parent = true
position = Vector2( 107, 70 )
scale = Vector2( 0.977099, 0.954128 )
texture = ExtResource( 2 )

[connection signal="pressed" from="." to="ButtonSound" method="play"]
